{
    "page": 1,
    "total_results": 194,
    "total_pages": 10,
    "results": [
        {
            "vote_count": 260,
            "id": 9613,
            "video": false,
            "vote_average": 6.6,
            "title": "Spider",
            "popularity": 5.229,
            "poster_path": "/8H4vgZbD2SZGV8ddOmgmt603lyR.jpg",
            "original_language": "en",
            "original_title": "Spider",
            "genre_ids": [
                18,
                9648,
                53
            ],
            "backdrop_path": "/joIzHKniyKG7kwcxhotpsTxyYAC.jpg",
            "adult": false,
            "overview": "A mentally disturbed man takes residence in a halfway house. His mind gradually slips back into the realm created by his illness, where he replays a key part of his childhood.",
            "release_date": "2002-12-13"
        },
        {
            "vote_count": 8182,
            "id": 557,
            "video": false,
            "vote_average": 7,
            "title": "Spider-Man",
            "popularity": 18.271,
            "poster_path": "/rZd0y1X1Gw4t5B3f01Qzj8DYY66.jpg",
            "original_language": "en",
            "original_title": "Spider-Man",
            "genre_ids": [
                14,
                28
            ],
            "backdrop_path": "/5yAEbTXiJZQpNx7eCyyOhnY9MYw.jpg",
            "adult": false,
            "overview": "After being bitten by a genetically altered spider, nerdy high school student Peter Parker is endowed with amazing powers.",
            "release_date": "2002-05-01"
        },
        {
            "vote_count": 9009,
            "id": 315635,
            "video": false,
            "vote_average": 7.4,
            "title": "Spider-Man: Homecoming",
            "popularity": 33.084,
            "poster_path": "/c24sv2weTHPsmDa7jEMN0m2P3RT.jpg",
            "original_language": "en",
            "original_title": "Spider-Man: Homecoming",
            "genre_ids": [
                28,
                12,
                878,
                18
            ],
            "backdrop_path": "/vc8bCGjdVp0UbMNLzHnHSLRbBWQ.jpg",
            "adult": false,
            "overview": "Following the events of Captain America: Civil War, Peter Parker, with the help of his mentor Tony Stark, tries to balance his life as an ordinary high school student in Queens, New York City, with fighting crime as his superhero alter ego Spider-Man as a new threat, the Vulture, emerges.",
            "release_date": "2017-07-05"
        },
        {
            "vote_count": 5825,
            "id": 559,
            "video": false,
            "vote_average": 6.1,
            "title": "Spider-Man 3",
            "popularity": 18.205,
            "poster_path": "/btocnvK4l8a4BGS887ed3lsTFog.jpg",
            "original_language": "en",
            "original_title": "Spider-Man 3",
            "genre_ids": [
                14,
                28,
                12
            ],
            "backdrop_path": "/7IBpOrw0ATwL1AOV97mtsceDpYs.jpg",
            "adult": false,
            "overview": "The seemingly invincible Spider-Man goes up against an all-new crop of villains—including the shape-shifting Sandman. While Spider-Man’s superpowers are altered by an alien organism, his alter ego, Peter Parker, deals with nemesis Eddie Brock and also gets caught up in a love triangle.",
            "release_date": "2007-05-01"
        },
        {
            "vote_count": 1,
            "id": 324857,
            "video": false,
            "vote_average": 0,
            "title": "Spider-Man: Into the Spider-Verse",
            "popularity": 9.257,
            "poster_path": "/iiZZdoQBEYBv6id8su7ImL0oCbD.jpg",
            "original_language": "en",
            "original_title": "Spider-Man: Into the Spider-Verse",
            "genre_ids": [
                28,
                12,
                16,
                878
            ],
            "backdrop_path": "/9Gdb6tz1yTXvmP7p4gJjD6Aq848.jpg",
            "adult": false,
            "overview": "Miles Morales is juggling his life between being a high school student and being Spider-Man. However, when Wilson \"Kingpin\" Fisk uses a super collider, another Spider-Man from another dimension, Peter Parker, accidentally winds up in Miles' dimension. As Peter trains Miles to become a better Spider-Man, they are soon joined by four other Spider-Men from across the \"Spider-Verse\". As all these clashing dimensions start to tear Brooklyn apart, Miles must help the others stop Fisk and return everyone to their own dimensions.",
            "release_date": "2018-12-12"
        },
        {
            "vote_count": 99,
            "id": 166822,
            "video": false,
            "vote_average": 5.6,
            "title": "Big Ass Spider!",
            "popularity": 8.979,
            "poster_path": "/g4iOcEQMBfxHJsPg3cublh1Z0Su.jpg",
            "original_language": "en",
            "original_title": "Big Ass Spider!",
            "genre_ids": [
                878
            ],
            "backdrop_path": "/rZhdGiYPYc0ZJt7hSFnD1WnSEKs.jpg",
            "adult": false,
            "overview": "When a giant alien spider escapes from a military lab and rampages across the city of Los Angeles, it is up to one clever exterminator and his security guard sidekick to kill the creature before the entire city is destroyed.",
            "release_date": "2013-10-17"
        },
        {
            "vote_count": 22,
            "id": 55825,
            "video": false,
            "vote_average": 7.2,
            "title": "Spider",
            "popularity": 1.565,
            "poster_path": "/97jePhTnH2pHBh4nPfH5aapOsX0.jpg",
            "original_language": "it",
            "original_title": "Spider",
            "genre_ids": [
                18
            ],
            "backdrop_path": null,
            "adult": false,
            "overview": "A young man tries to make things right again in his relationship after he and his girlfriend get in a fight.",
            "release_date": "2007-06-17"
        },
        {
            "vote_count": 614,
            "id": 2043,
            "video": false,
            "vote_average": 6.2,
            "title": "Along Came a Spider",
            "popularity": 6.972,
            "poster_path": "/1ZjDmPKMUtout8hR77qmK1llgls.jpg",
            "original_language": "en",
            "original_title": "Along Came a Spider",
            "genre_ids": [
                80,
                9648,
                53,
                28
            ],
            "backdrop_path": "/3LRjM5M5WidHKlRQuSvqRwU2Fjr.jpg",
            "adult": false,
            "overview": "When a teacher kidnaps a girl from a prestigious school, homicide detective, Alex Cross takes the case and teams up with young security agent, Jezzie Flannigan in hope of finding the girl and stopping the brutal psychopath. Every second counts as Alex and Jezzie attempt to track down the kidnapper before the spider claims another victim for its web.",
            "release_date": "2001-04-06"
        },
        {
            "vote_count": 55,
            "id": 28504,
            "video": false,
            "vote_average": 7.1,
            "title": "Spider Baby",
            "popularity": 3.664,
            "poster_path": "/hYFT7ZGSTi5MHtqz88B0KkyzwZc.jpg",
            "original_language": "en",
            "original_title": "Spider Baby",
            "genre_ids": [
                35,
                27
            ],
            "backdrop_path": "/dCic0KczgDjUOtZj5ROU2BiIL74.jpg",
            "adult": false,
            "overview": "The story follows a family of inbreeds who have been afflicted by a genetic disorder known as 'Merrye syndrome', named after the family in which the disorder developed. This malady causes its victims to enter a state of age regression that starts at the age of ten and continues throughout the remainder of the person's life, rendering them with the intelligence of a child. The final generation of the family has been entrusted to the care of the family chauffeur (Lon Chaney Jr), and all is well for these odd people until a greedy branch of the family decides that they want to relieve the family of its home. Mental illness has always, and will always be, a fascinating subject for horror movies as it probes into the unknown and Spider Baby makes best use of that fact.",
            "release_date": "1967-12-24"
        },
        {
            "vote_count": 9036,
            "id": 1930,
            "video": false,
            "vote_average": 6.5,
            "title": "The Amazing Spider-Man",
            "popularity": 20.425,
            "poster_path": "/eA2D86Y6VPWuUzZyatiLBwpTilQ.jpg",
            "original_language": "en",
            "original_title": "The Amazing Spider-Man",
            "genre_ids": [
                28,
                12,
                14
            ],
            "backdrop_path": "/ujAY1ad7yS2TfV0GDNGUZ7DK0mo.jpg",
            "adult": false,
            "overview": "Peter Parker is an outcast high schooler abandoned by his parents as a boy, leaving him to be raised by his Uncle Ben and Aunt May. Like most teenagers, Peter is trying to figure out who he is and how he got to be the person he is today. As Peter discovers a mysterious briefcase that belonged to his father, he begins a quest to understand his parents' disappearance – leading him directly to Oscorp and the lab of Dr. Curt Connors, his father's former partner. As Spider-Man is set on a collision course with Connors' alter ego, The Lizard, Peter will make life-altering choices to use his powers and shape his destiny to become a hero.",
            "release_date": "2012-06-27"
        },
        {
            "vote_count": 6084,
            "id": 102382,
            "video": false,
            "vote_average": 6.4,
            "title": "The Amazing Spider-Man 2",
            "popularity": 18.479,
            "poster_path": "/mUjWof8LHDgCZC9mFp0UYKBf1Dm.jpg",
            "original_language": "en",
            "original_title": "The Amazing Spider-Man 2",
            "genre_ids": [
                28,
                12,
                14
            ],
            "backdrop_path": "/tmFDgDmrdp5DYezwpL0ymQKIbnV.jpg",
            "adult": false,
            "overview": "For Peter Parker, life is busy. Between taking out the bad guys as Spider-Man and spending time with the person he loves, Gwen Stacy, high school graduation cannot come quickly enough. Peter has not forgotten about the promise he made to Gwen’s father to protect her by staying away, but that is a promise he cannot keep. Things will change for Peter when a new villain, Electro, emerges, an old friend, Harry Osborn, returns, and Peter uncovers new clues about his past.",
            "release_date": "2014-04-16"
        },
        {
            "vote_count": 6621,
            "id": 558,
            "video": false,
            "vote_average": 6.9,
            "title": "Spider-Man 2",
            "popularity": 6.177,
            "poster_path": "/pixSKHplrTqUzxMS2K5socvtCfs.jpg",
            "original_language": "en",
            "original_title": "Spider-Man 2",
            "genre_ids": [
                28,
                12,
                14
            ],
            "backdrop_path": "/inHzBSWqQhHaamuBSZ0I0YQ1OQf.jpg",
            "adult": false,
            "overview": "Peter Parker is going through a major identity crisis. Burned out from being Spider-Man, he decides to shelve his superhero alter ego, which leaves the city suffering in the wake of carnage left by the evil Doc Ock. In the meantime, Parker still can't act on his feelings for Mary Jane Watson, a girl he's loved since childhood.",
            "release_date": "2004-06-25"
        },
        {
            "vote_count": 14,
            "id": 43088,
            "video": false,
            "vote_average": 6.6,
            "title": "Spider Lilies",
            "popularity": 2.386,
            "poster_path": "/heBEwl82EUJcsD2nmj2ZiAjX9Zg.jpg",
            "original_language": "zh",
            "original_title": "刺青",
            "genre_ids": [
                18,
                10749
            ],
            "backdrop_path": "/vRUl4dj64GJfQdhRyJWMCQ6bkML.jpg",
            "adult": false,
            "overview": "When Jade, a web-cam girl, visits Takeko's tattoo studio she becomes entranced with the image of the spider lily and with Takeko as well. In order to get closer to the object of her desire, Jade asks Takeko to give her the same lily tattoo, challenging Takeko's monastic existence and opening up memories which threaten to tear the two women apart.",
            "release_date": "2007-03-30"
        },
        {
            "vote_count": 0,
            "id": 429617,
            "video": false,
            "vote_average": 0,
            "title": "Spider-Man: Far from Home",
            "popularity": 7.21,
            "poster_path": "/rZVkWAEjmHVCXVoZaDgSaooel8V.jpg",
            "original_language": "en",
            "original_title": "Spider-Man: Far from Home",
            "genre_ids": [
                28,
                12,
                878,
                35,
                9648
            ],
            "backdrop_path": "/czX5BtmyI1rAPzedCshFZbvEIvc.jpg",
            "adult": false,
            "overview": "Peter Parker is beset with troubles in his failing personal life as he battles a brilliant businessman named Adrian Toomes and a magician named Quentin Beck.",
            "release_date": "2019-07-04"
        },
        {
            "vote_count": 72,
            "id": 11703,
            "video": false,
            "vote_average": 7.1,
            "title": "Kiss of the Spider Woman",
            "popularity": 3.723,
            "poster_path": "/xvKVV1plZeJmwUZT9fMoUIugsCx.jpg",
            "original_language": "en",
            "original_title": "Kiss of the Spider Woman",
            "genre_ids": [
                18
            ],
            "backdrop_path": "/wS4DaBON5GtMdD3UQcVyqqKXGs9.jpg",
            "adult": false,
            "overview": "Luis Molina and Valentin Arregui are cell mates in a South American prison. Luis, a homosexual, is found guilty of immoral behaviour and Valentin is a political prisoner. To escape reality Luis invents romantic movies, while Valentin tries to keep his mind on the situation he's in. During the time they spend together, the two men come to understand and respect one another.",
            "release_date": "1985-07-26"
        },
        {
            "vote_count": 0,
            "id": 446807,
            "video": false,
            "vote_average": 0,
            "title": "The Girl in the Spider's Web",
            "popularity": 27.403,
            "poster_path": "/w4ibr8R702DCjwYniry1D1XwQXj.jpg",
            "original_language": "en",
            "original_title": "The Girl in the Spider's Web",
            "genre_ids": [
                18,
                53,
                9648,
                80
            ],
            "backdrop_path": "/zYZeoInDyCziwCD8psOaryL8ntR.jpg",
            "adult": false,
            "overview": "Lisbeth Salander and Mikael Blomkvist find themselves caught in a web of spies, cyber-criminals and corrupt government officials - both in Sweden and in the United States - whom are only know as The Spider Society.",
            "release_date": "2018-10-05"
        },
        {
            "vote_count": 38,
            "id": 21781,
            "video": false,
            "vote_average": 6.6,
            "title": "Spider Forest",
            "popularity": 2.09,
            "poster_path": "/bnDA4gvM9NMwYH8leYdKQIOmuRK.jpg",
            "original_language": "ko",
            "original_title": "거미숲",
            "genre_ids": [
                53,
                27
            ],
            "backdrop_path": "/eM6aOOuRAInEaNAynDrQQDg3NwK.jpg",
            "adult": false,
            "overview": "A recently widowed TV producer is drawn to an isolated cabin in a mysterious woods. KANG Min regains his consciousness 14 days after brain surgery following a mysterious accident he had in the forest. Shockingly enough, the first thing he says is that two people died in Spider Forest. Detective CHOI, KANG Min's friend, finds a couple brutally murdered at a cottage in the forest, just like KANG Min described. As the couple found dead at the cottage are identified as CHOI Jong-phil, his senior from work, and HWANG Soo-young, his girlfriend, KANG Min becomes both a witness and key suspect in the investigation.",
            "release_date": "2004-09-03"
        },
        {
            "vote_count": 0,
            "id": 285263,
            "video": false,
            "vote_average": 0,
            "title": "Spider",
            "popularity": 0.6,
            "poster_path": "/hzsD396Ajk7NlBAX7gu9RVkExvI.jpg",
            "original_language": "en",
            "original_title": "Ududeagu",
            "genre_ids": [],
            "backdrop_path": null,
            "adult": false,
            "overview": "Shot in Lagos, Nigeria, Ududeagu is an experimental short film about impermanence and a spider. Narrated in Igbo with English subtitles, it is a brief and haunting piece of visual mythology.",
            "release_date": "2014-01-01"
        },
        {
            "vote_count": 0,
            "id": 524658,
            "video": true,
            "vote_average": 0,
            "title": "The Spectacular Spider-Man (Fan Film)",
            "popularity": 7.19,
            "poster_path": null,
            "original_language": "en",
            "original_title": "The Spectacular Spider-Man (Fan Film)",
            "genre_ids": [
                28
            ],
            "backdrop_path": null,
            "adult": false,
            "overview": "Spider-Man must battle The Green Goblin and Venom.",
            "release_date": "2018-10-09"
        },
        {
            "vote_count": 22,
            "id": 31013,
            "video": false,
            "vote_average": 4.5,
            "title": "Earth vs. the Spider",
            "popularity": 2.803,
            "poster_path": "/nROvHpH4DmKs8rdJGmRqPIkCBj0.jpg",
            "original_language": "en",
            "original_title": "Earth vs. the Spider",
            "genre_ids": [
                27,
                878
            ],
            "backdrop_path": "/jhBRfYBShZIxJh0Jeq8IRGsfJWq.jpg",
            "adult": false,
            "overview": "A shy comic book fan is injected with an experimental serum and starts turning into a spider. When web covered bodies start appearing a policeman starts to investigate the strange case.",
            "release_date": "2001-10-07"
        }
    ]
}
